Fit IDF model based on sliding BM
…
Estimate parameters and compute Quantile Scores

Now we have everything to estimate parameters of the d-GEV distribution along with its quantiles and evaluate the estimation based on cross-validation.

cv_res <- fit_dgev_cv_qs(agg_bm = agbm, conc_bm = concbm, ds = dur, quants = c(0.5, 0.8, 0.9, 0.95, 0.99, 0.995), 
               mult_sc = TRUE)

cv_res
#> # A tibble: 672 x 12
#>      mut sigma0    shape   eta  eta2 estimator  conv    ps    ds est.quants Testdata         quant_score
#>    <dbl>  <dbl>    <dbl> <dbl> <dbl> <chr>     <int> <dbl> <dbl>      <dbl> <list>                 <dbl>
#>  1  2.72   5.94  0.0556  0.730 0.144 disjoint      0   0.5     1      18.3  <tibble [3 x 1]>       3.63 
#>  2  2.80   5.89 -0.00685 0.731 0.110 sliding       0   0.5     1      18.6  <tibble [3 x 1]>       3.58 
#>  3  2.72   5.94  0.0556  0.730 0.144 disjoint      0   0.5     2      10.5  <tibble [3 x 1]>       2.17 
#>  4  2.80   5.89 -0.00685 0.731 0.110 sliding       0   0.5     2      10.6  <tibble [3 x 1]>       2.14 
#>  5  2.72   5.94  0.0556  0.730 0.144 disjoint      0   0.5     4       6.10 <tibble [3 x 1]>       0.684
#>  6  2.80   5.89 -0.00685 0.731 0.110 sliding       0   0.5     4       6.22 <tibble [3 x 1]>       0.704
#>  7  2.72   5.94  0.0556  0.730 0.144 disjoint      0   0.5     8       3.61 <tibble [3 x 1]>       0.485
#>  8  2.80   5.89 -0.00685 0.731 0.110 sliding       0   0.5     8       3.68 <tibble [3 x 1]>       0.474
#>  9  2.72   5.94  0.0556  0.730 0.144 disjoint      0   0.5    24       1.60 <tibble [3 x 1]>       0.263
#> 10  2.80   5.89 -0.00685 0.731 0.110 sliding       0   0.5    24       1.63 <tibble [3 x 1]>       0.258
#> # ... with 662 more rows

Now we can compute the mean Quantile Scores of the cross-validated Quantiles Scores.

meanQS <-  cv_res %>% dplyr::select( - c( mut, sigma0, shape, eta, conv, Testdata )) %>%
         dplyr::group_by(ds, ps, estimator) %>%
         dplyr::summarise(MQS = mean(quant_score), .groups = "drop")
meanQS
#> # A tibble: 84 x 4
#>       ds    ps estimator   MQS
#>    <dbl> <dbl> <chr>     <dbl>
#>  1     1  0.5  disjoint  3.21 
#>  2     1  0.5  sliding   3.21 
#>  3     1  0.8  disjoint  2.22 
#>  4     1  0.8  sliding   2.21 
#>  5     1  0.9  disjoint  1.28 
#>  6     1  0.9  sliding   1.28 
#>  7     1  0.95 disjoint  0.841
#>  8     1  0.95 sliding   0.747
#>  9     1  0.99 disjoint  0.310
#> 10     1  0.99 sliding   0.264
#> # ... with 74 more rows

Further, we compute the Quantile Skill index and make a heatmap.

QSI <- meanQS %>% pivot_wider( names_from = estimator, values_from = MQS) %>% 
  mutate( QSI = purrr::map2_dbl( .x = disjoint, .y = sliding, ~ compute_qsi(.y, .x)))
QSI
#> # A tibble: 42 x 5
#>       ds    ps disjoint sliding      QSI
#>    <dbl> <dbl>    <dbl>   <dbl>    <dbl>
#>  1     1 0.5      3.21    3.21   0.00112
#>  2     1 0.8      2.22    2.21   0.00116
#>  3     1 0.9      1.28    1.28  -0.00288
#>  4     1 0.95     0.841   0.747  0.112  
#>  5     1 0.99     0.310   0.264  0.148  
#>  6     1 0.995    0.189   0.158  0.163  
#>  7     2 0.5      1.85    1.85   0.00380
#>  8     2 0.8      1.63    1.65  -0.0121 
#>  9     2 0.9      1.09    1.14  -0.0393 
#> 10     2 0.95     0.598   0.673 -0.112  
#> # ... with 32 more rows
…
The length of the summer season is 92 days, which affects the blocksize for computing block maxima (e.g., for duration \(d = 1\), it is now $ 24  = 2208$). We can pass the new season length to the functions that are affected by that, via the argument seasonlength. The rest works just as for the default case (with seasonlength 365 days) above:

agdf <- fun_aggregate2df(data = precEssen, ds = dur, seasonlength = 92)
agbm <- get_agg_bm(data = precEssen, ds = dur, seasonlength = 92) 
concbm <- compute_conc_bm_id(agdf, seasonlength = 92, testset = "consec")
cv_res <- fit_dgev_cv_qs(agg_bm = agbm, conc_bm = concbm, ds = dur, 
                         quants = c(0.5, 0.8, 0.9, 0.95, 0.99, 0.995), 
               mult_sc = TRUE)

meanQS <-  cv_res %>% dplyr::select( - c( mut, sigma0, shape, eta, conv, Testdata )) %>%
         dplyr::group_by(ds, ps, estimator) %>%
         dplyr::summarise(MQS = mean(quant_score), .groups = "drop")
meanQS
#> # A tibble: 84 x 4
#>       ds    ps estimator   MQS
#>    <dbl> <dbl> <chr>     <dbl>
#>  1     1  0.5  disjoint  3.09 
#>  2     1  0.5  sliding   3.07 
#>  3     1  0.8  disjoint  2.81 
#>  4     1  0.8  sliding   2.66 
#>  5     1  0.9  disjoint  1.88 
#>  6     1  0.9  sliding   1.80 
#>  7     1  0.95 disjoint  1.23 
#>  8     1  0.95 sliding   1.08 
#>  9     1  0.99 disjoint  0.301
#> 10     1  0.99 sliding   0.239
#> # ... with 74 more rows

QSI <- meanQS %>% pivot_wider( names_from = estimator, values_from = MQS) %>% 
  mutate( QSI = purrr::map2_dbl( .x = disjoint, .y = sliding, ~ compute_qsi(.y, .x)))
QSI
#> # A tibble: 42 x 5
#>       ds    ps disjoint sliding     QSI
#>    <dbl> <dbl>    <dbl>   <dbl>   <dbl>
#>  1     1 0.5      3.09    3.07  0.00508
#>  2     1 0.8      2.81    2.66  0.0549 
#>  3     1 0.9      1.88    1.80  0.0455 
#>  4     1 0.95     1.23    1.08  0.129  
#>  5     1 0.99     0.301   0.239 0.205  
#>  6     1 0.995    0.195   0.150 0.229  
#>  7     2 0.5      1.66    1.65  0.00285
#>  8     2 0.8      1.73    1.64  0.0488 
#>  9     2 0.9      1.33    1.26  0.0501 
#> 10     2 0.95     0.884   0.843 0.0466 
#> # ... with 32 more rows
…
