Spatio-Temporal-GEV
…
bmuniq
#> # A tibble: 8 x 2
#>   Station  uniq_data         
#>   <chr>    <list>            
#> 1 Station1 <tibble [117 x 3]>
#> 2 Station2 <tibble [127 x 3]>
#> 3 Station3 <tibble [123 x 3]>
#> 4 Station4 <tibble [117 x 3]>
#> 5 Station5 <tibble [113 x 3]>
#> 6 Station6 <tibble [113 x 3]>
#> 7 Station7 <tibble [116 x 3]>
#> 8 Station8 <tibble [117 x 3]>
bmuniq[1, ]$uniq_data
#> [[1]]
#> # A tibble: 117 x 3
#>     slbm temp_cvrt     n
#>    <dbl>     <dbl> <int>
#>  1  16.4     0.195     5
#>  2  16.6     0.195     4
#>  3  16.9     0.48     19
#>  4  17.1     0.258    11
#>  5  17.2     0.46     25
#>  6  17.2     0.462    22
#>  7  17.3     0.462    16
#>  8  17.3     0.66      4
#>  9  17.4     0.295    11
#> 10  17.5     0.195    39
#> # ... with 107 more rows
…
